^E:\WORK\MYPROJECTS\RTR\WINDOWS\SDK\02-WINDOW\MYWINDOW\MYWINDOW.CPP
E:\WORK\MYPROJECTS\RTR\WINDOWS\SDK\02-WINDOW\MYWINDOW\DEBUG\VC141.PDB
E:\WORK\MYPROJECTS\RTR\WINDOWS\SDK\02-WINDOW\MYWINDOW\DEBUG\VC141.IDB
E:\WORK\MYPROJECTS\RTR\WINDOWS\SDK\02-WINDOW\MYWINDOW\DEBUG\MYWINDOW.OBJ
