^E:\PRAFULLA - RTR_2018\ASSIGNMENTS\SDK\08-WINDOW_WM_CHAR_HANDLED\WINDOW_WM_CHAR_HANDLED\DEBUG\WINDOW_WM_CHAR_HANDLED.OBJ
E:\PRAFULLA - RTR_2018\ASSIGNMENTS\SDK\08-WINDOW_WM_CHAR_HANDLED\WINDOW_WM_CHAR_HANDLED\DEBUG\WINDOW_WM_CHAR_HANDLED.ILK
E:\PRAFULLA - RTR_2018\ASSIGNMENTS\SDK\08-WINDOW_WM_CHAR_HANDLED\WINDOW_WM_CHAR_HANDLED\DEBUG\WINDOW_WM_CHAR_HANDLED.EXE
E:\PRAFULLA - RTR_2018\ASSIGNMENTS\SDK\08-WINDOW_WM_CHAR_HANDLED\WINDOW_WM_CHAR_HANDLED\DEBUG\WINDOW_WM_CHAR_HANDLED.PDB
